*** Darwin 8x196 ***
Turn = 0.
  0123456789012345678901234567890123456789012345678901234567890123456789012345678901234567890123456789012345678901234567890123456789012345678901234567890123456789012345678901234567890123456789012345
0 .rr..f.......r.....r..t................f..h.f.....r...........................................f.....rr..............h.r..........t...rf...........f..r................................f..h..r.......
1 .r.t.r..........................f...............f...........h.f.....r.........t.....t.....f......t......f............r......................r......................................f................
2 ....................f......h...f................h..................hr.......r........................................t...r.................h......h........f....h..t...............h...........rrr..
3 ..f.............th..........h.f....fr.h....r........h..h...h....r...........r.........h.............................rf.h.r.......h.........t..t....r.r...........t.........f.........h.....f........
4 r.............r.......r......f...f.........f....t......h..r.....h.........r................f.......r.....r..t............t............ff....h...h...........r.......................f...............
5 ....................h...........h........t......h..........f..............t.r.....t.........hf.h..........r......t....f......ft..........f....................h...........f..r........h......r......
6 .............h.....f..th..........r.............tf...........f........h...f.hf............rh....f....t...............f.................h....r.h.....h......r...f..h............h......h......fr.....
7 ...f.....r........f.r..................f..........f....r...f.......h............tt....f..................f.......t........t......t........hr.............f................h....t..t.......r......hrh

Turn = 164.
  0123456789012345678901234567890123456789012345678901234567890123456789012345678901234567890123456789012345678901234567890123456789012345678901234567890123456789012345678901234567890123456789012345
0 ...r.r..r.............rrr..r.........r.r..r.r.r....r.....rr.............r.......rr....r..rr........rttttttt........r...........r.........r....r.....rr.r..........r.....r..r..r...r..r.r...rr...rr.r
1 .......rr......rr..........................r............r........................r.................ttttr........rr.r...............r.............................r..................................
2 .r..............r.r...r...r.r............r.r.r.............r.......................r..................t.............r.......r.......................................................................
3 .r................r....r...r.................r.............................rr...................................r.........r.....................................................tt.....rr...........
4 r.................r...r.............r........r......................................................r.............r....r....r.....rr.....................................r.......t.................r
5 r..r.........r.....................rr.......rrr..........r......rr....r.r.....................................r..................r..r....r.r..............................r....r........r.........r.
6 .r...........r.....r...........r.r............r..................r...........r..r...........r......rr..........r...r............r..........r....................................r.r........r........
7 .r..........rr..r.....r.r....rr...r..r.......rr.r....r....r.r.rr............r...........r.r..........r..........rr...r..r..r..r.r....r..........r...r....r.r..................r............r........

*** Darwin 6x124 ***
Turn = 0.
  0123456789012345678901234567890123456789012345678901234567890123456789012345678901234567890123456789012345678901234567890123
0 r......f.t...hh...f...rt..........fft.r..f.....h..t........r.........r.........f......t......f...h...trh....t...fr.......t..
1 .t.r........t......r......ht...h......f...................f...h..f.r...h.....t.f.....h.......f..fth.h....t..t.t..h.t.r......
2 f...........rr...........h.t...r...f..hr...hr.................fr...tt..........f.....h....ft.h......t.rf.........h..t.thrf..
3 .......r............t...t...r.f....hh....h.....f...f..r......t.r.r..r.hhr....rr...t..h.f.........f.hf.f...h...t..h....tf....
4 h..trf...r......r........t......f....t.........hhh...hh.....r.f...rt.......h....f..fr.....h......t...ff.....t.....f.ff...r.t
5 ...h.....t...rt......h.........t.ft...........h..t.hth....rr...r....r.r...f....f....tt..f......ft.....hh..f.h.ft..f........f

Turn = 84.
  0123456789012345678901234567890123456789012345678901234567890123456789012345678901234567890123456789012345678901234567890123
0 ttt..r.r..........................rrrrrttttt...........r..r..rrrr....r..........r.......r.....r..trtttttt...r..r...........r
1 tttt...r.......................r.rrrrttt.r.tt.......r.r........r............r..tt...r.......t..ttt.tttt.....rr.......r.....r
2 ttt......r..................t.......tttttr.t..........r........................tt......r.tttt.....t.ttt..........t..........
3 ttt.........................t....r..rrtt.r.r....................................t..ttt....t......tt..ttt.......r.ttt........
4 ....t..........r..........ttt...ttt...ttt......................................r...tr...........trt...tttt......rrrr........
5 ....trr.......r................tttt...t.trr..r..r....r.r....r.......r.....r........rtt.........ttrtttttt....r....t...r.r....

*** Darwin 8x85 ***
Turn = 0.
  0123456789012345678901234567890123456789012345678901234567890123456789012345678901234
0 ....fh..h.fff.........rf........f.......f.......t......f.....rh......f.r..t....hh.t..
1 ...f...t..rr.ff.th...ff...th....f..h.h.r.f...h..........h.h.h..f..r...r......t.f...hf
2 r.t..t...rt..rt..........trh.....r.......r...tf....t....f..t....h......r.f.f.ft..t...
3 ...r........h...hth...........f.........f...r....h.r...t.h.......h....r........fr..r.
4 ......fr.hh.t..r.......tr........t..h..........f...th.....t.r.f..f..h...t.....r....t.
5 ...h.....fr...h...t..trfth.............tf.f....h....f.r.............f...f...f.t...hh.
6 h.r..t.....h...............r..t..fh....h...ht......f....f..f......f..t.....h.r.......
7 ...........h.t.r............rrtr....fr.r....f..........frt..t.........h.......t.hrh..

Turn = 41.
  0123456789012345678901234567890123456789012345678901234567890123456789012345678901234
0 .rrr.r....r.r....r.........trr.......rr....r.r.....rrr.....r.tt..r..r.r.r....r.rr.r.r
1 ..rrrr.tttt..r...r........ttt..................t........r.r.r.......r...........r....
2 ......r.r.t.......rt....ttttttt..........r.....tr.....rtt...t...........tt.........r.
3 ....rrrrr.........t......t.r...............ttt.......r.rtt.ttt.........ttt...rr.r....
4 ......t.r.......rrt....t.t..................t...rr.rr..rr..rr.........ttttt..rr.r..rr
5 .....t...r...........tttr.r...r.............r.r..r...r.rr...r.................r.r.r..
6 ....tr...............ttr.r....r...............................r......................
7 .....r..rr..........r..r.r...rrr.......r.......rrr....rr..r.rrttt.....rr...r.........

*** Darwin 4x14 ***
Turn = 0.
  01234567890123
0 ....r.r...t..f
1 ..h..r.fff..h.
2 ....r..f..rf..
3 h.hrr....r....

Turn = 71.
  01234567890123
0 rr.....rr....r
1 rrr....r......
2 rr......r..r..
3 rr..rr....r..r

*** Darwin 10x127 ***
Turn = 0.
  0123456789012345678901234567890123456789012345678901234567890123456789012345678901234567890123456789012345678901234567890123456
0 ............f....h....ft.t...........h...t.ht.....r............h..........t.......r.f.......h...............t..................
1 .......h..........t........f.r...f.....................t..f..t......f.......th..........f............h.........r.......r.......
2 .f...........................h......................t.......t......r......h...f............t..f.fh.......t.....................
3 h..t.....r..r.t........t....tf................r..........r.....h....t..r..f....hth.......h.....h....tf....f..h....hr.....tr.f..
4 hfhr.......r...hr...hf..h.........ft.............h..........f.f.t.r............r....t....f...f.....t........f..f.........f.....
5 ........r...........f.............h.hr.................h.......h............t....r...........t...rh...t..h....r...h....f.......
6 .........f....h........r................r..hh.......r................t....r............r...f.htf.tt...r........................
7 .t.........h....r....h..........t...........rt....r......r.r.................f.r.t.t...h...f...t........hf.....r...............
8 .....t.....t........h....tf..r.....f..........h....f.........h.f......h...................t.....rf.r....t.t......r...t..t.t....
9 .t........h......fff.............r......f...r...h.......h.t......................r...........r.....................t...........

Turn = 137.
  0123456789012345678901234567890123456789012345678901234567890123456789012345678901234567890123456789012345678901234567890123456
0 rrrr.............r.rrr.......r.....r.r.............r..tttttttttt........rr...r.........rr...........rr...r..........r......rr..
1 .....................rr............r...r................t...ttt...........r......................r...........................r.
2 .............r.......r....t...........................t.t................................rrt..tttt.............................
3 r................r....r.tttt...............r........t.ttt...............................r.rttttt......r........................
4 r....r.............r...tttttt....................r..t.tt..................................tt.ttt......r............rr..........
5 ......r................ttt......r.t.........rr............................................tttttt.r....r..r.........r...........
6 ......................tttt.......tt................r.......r....r.............r............tttt..r....r.r.............r........
7 ...r...r........r.....tt.t........t..........r.................................r............ttt..r....................r........
8 ......r....r..r........ttttt...................r...............................r...r............r....r...................r....r
9 ..r.......r..rr....rr........rrr.............r.r.............r.r.r.......r........r...........r.r.....r.r....r.....r..r.......r

*** Darwin 9x31 ***
Turn = 0.
  0123456789012345678901234567890
0 ..r...rh..r...r................
1 ...t.........f.........r.......
2 hf.........h..t.ht...r..h......
3 ........h.......r.............h
4 .....r.....................f...
5 r.t..hr..hhh.....f.............
6 ..........f...t.............f..
7 ...r......................f....
8 .....h.........................

Turn = 36.
  0123456789012345678901234567890
0 ...r.r....r..r.....r....r.....r
1 r.ttt....................r.....
2 ....................r..........
3 ....................r.....rr...
4 ..t.....................rr.....
5 ..tt...........r.....r.........
6 ...t.....r...r........r.......r
7 ..........................r..r.
8 .r...r..r...............r.....r

*** Darwin 5x138 ***
Turn = 0.
  012345678901234567890123456789012345678901234567890123456789012345678901234567890123456789012345678901234567890123456789012345678901234567
0 .......................................................................................................h.......t..........................
1 ..........................................................................................................................................
2 ............................................r.............................................................................................
3 .........h................f...........................................................................................t...................
4 .............................t............................................................................................................

Turn = 142.
  012345678901234567890123456789012345678901234567890123456789012345678901234567890123456789012345678901234567890123456789012345678901234567
0 ..........................................................................................................................................
1 ..........................................................................................................................................
2 ..........................................................................................................................................
3 .........................hf...........................................................................................t...................
4 .............................rr.................rr........................................................................................

*** Darwin 5x133 ***
Turn = 0.
  0123456789012345678901234567890123456789012345678901234567890123456789012345678901234567890123456789012345678901234567890123456789012
0 ..........f......h......hf.rt.th.f.tf........fr.tt.....f.........t..t.......f..r....h....h.....f.t.r........rh...rh.tf.f.......t.....
1 ..t.h.....r....r.......t..........r....f........r......r.r.....r.r.h.....t....ff.h.........................f...............h.......rr
2 ...........t.....h.........t......t......tf.r.f......h.............f...rt.fht.....f..hr...........h..ff..........f....fh............t
3 h.r.h........th.....ff..........tf.hr..t..h..tr..h.........f..r...h.....t..........r...f.....t..t........h.t..t..r....h........f..r..
4 ....t..h.....r........h.r..t........t.r.r...........rhrh..f...fhf....h...r...f.r...r....trtr........rr...r...t.t...f..ht..h.......r..

Turn = 113.
  0123456789012345678901234567890123456789012345678901234567890123456789012345678901234567890123456789012345678901234567890123456789012
0 ..r.......................r.r.tt...............trr..rr.....................tt....r...r.........................rr....r...............
1 ..r.........ttt..............ttt.t......ttt...ttttt........................tttttr...............rt............r.....rr..........tt...
2 .........tttrrt.................tt......tt....tttttttt....................ttt.tt................ttttt..........................ttttt.
3 r.........ttr.......f............ttt...t..t..ttt.tttt.................t..tttt..tt..............................................t..tt.
4 ...r.....r.rr....................tt....t......tttttttt................tttt.ttttttt.....r........ttttt........r......r..r.......ttttt.

*** Darwin 7x103 ***
Turn = 0.
  0123456789012345678901234567890123456789012345678901234567890123456789012345678901234567890123456789012
0 .......fr.................f..r...r.................h.......t..f.......r.............................hf.
1 .........t..........f......f.....h....................r............r....t..................f.fht.....tf
2 ......h..........f...............t..h........h...th......r.r...t..................h....................
3 ..............r....................t....f.t.....f.f..t......h....t....h.....h...f.............h........
4 .........r..........h..........f.....h.hh...t..h.....h.f...............f..r.........f.................h
5 t........t...................hr.............t.....t...ff..f...................r..................r.f...
6 ..................t........r...........r.....t............t...............r.......tt.t.............t...

Turn = 84.
  0123456789012345678901234567890123456789012345678901234567890123456789012345678901234567890123456789012
0 .rrr....r...r......rr................................t..rr.....t............r....r.r...rr............rr
1 r.....r...........rr.................................t....r....t....................rr.rr.............r
2 ............r............................r.......tt..t.........tt.......................rr.............
3 r.......t...........r.....................tt....t.t..t..........tt..............................r......
4 rr......tt....r.......r.........................t....t..........tt.............r.....rr.....r..........
5 t.......tt...r....................................tt.................................................r.
6 t...r...tt................r......................ttt.......tt.................r............r.........r.

*** Darwin 4x77 ***
Turn = 0.
  01234567890123456789012345678901234567890123456789012345678901234567890123456
0 th..hhh.....h...f...........hr..tr.t.rhh.....fh....rh.t.r.f..hhth..rf.htf....
1 .f.tr.f..tf..tft...rt.ftff..t...ftrt..rf...r..tt.t.ft.hf..rthff...r..r.t..f..
2 .hh..rh.......f.t.hfr.f..frt...h.t.t.f..f.r...f..ht....t.fr.hr..r.t..fh....fr
3 hhr.rr.f.f.ft.hrtt...r.t...r.r.ft.h.trrr....f..f..f.hr...r.t...rft.h.hfrf..hh

Turn = 125.
  01234567890123456789012345678901234567890123456789012345678901234567890123456
0 ttt.t.t.....h.ttttttttttttttt.r...r..rr.rr.r.r......rrr.r.rrrr........rr.....
1 .tttttt..tt..ttttttttttttt.t.rrr.r......r...r.......r..r..rrrrrr.rr....r....r
2 .t.ttt....t...tttttttttttrr...............r.r...r...r....r.rrrrr..rrr........
3 h...t..f.f.tt.t.ttttttttt...........r..r...rr....r...rrrr.rrrrr...rr.r......r

*** Darwin 3x57 ***
Turn = 0.
  012345678901234567890123456789012345678901234567890123456
0 .ft.r..trr.t.h.hf.f.r.rf.hf......r.f.frfr..hth..r.r.f.r.f
1 t..ht...rr.frft....ttrr..f.rrh.ftr....f...hfffrf...r..ttr
2 ..tt.ht.r.t...ffhrtfrh.hh.fh..ffr.h.r.f.h.th...r...rr..r.

Turn = 80.
  012345678901234567890123456789012345678901234567890123456
0 rrrrrrrrrr.rrr..rrrrrr.rrr..r....r.r...rr.rrrrr..r..r....
1 rrrrrrrrrrr.rr.rrrrrr...r.r............r.r..r.rrr......r.
2 rrrrr..rr..r..rr..rrrr.r..r..r.rr...r..rr.rr.rrrrr......r

*** Darwin 8x94 ***
Turn = 0.
  0123456789012345678901234567890123456789012345678901234567890123456789012345678901234567890123
0 ...............rh.t.t..rf.............f...h.......t...f...............t.......................
1 .t.........f.......t.......h.f.....f....h.....t.........ht.......t.f....r..f...........t.r....
2 ....hf.........h.............................r....r......h............h................f...t..
3 .......t......h.............................r..........r.........r.h..h......f.......h...t....
4 ......................t...h.....t....................r.h...........r...................r....h.
5 .........t........h...............r..t......................................f.................
6 ..r.f...........r.h............hf...th....r....t.........r.r...h....................t..f......
7 ................................h.h.......................f.rrf.....r.t...h...h............r.r

Turn = 129.
  0123456789012345678901234567890123456789012345678901234567890123456789012345678901234567890123
0 ......rrr..r......................r..r.........ttrrrrr........................................
1 ....................................r.........tt....................................r.........
2 rr...............................t............trr.r...........................................
3 ...............................t.t..........r.tt......r.......................................
4 ....r..........................ttttt.t..r.....................................................
5 rr..r..........r................tttt.tt..t...................................................r
6 r....r..rr.....................ttt.r.tttttrr................................................rr
7 rr................r......r.r.....t...tttttrr..................rr...r............r.....r......r

*** Darwin 9x150 ***
Turn = 0.
  012345678901234567890123456789012345678901234567890123456789012345678901234567890123456789012345678901234567890123456789012345678901234567890123456789
0 ht.............rf...........................f..........f..........f.........f......................f.t........................t.......................
1 .........f.h.............f.r.............h..........r...tt.....h...t....h.........r.....t..............f.....r...............r....t...h......h........
2 .t........f..............th........h........h....h...........r..t.....t.....t..............h....h...t..............r.f.........t.........t............
3 ....h.f.....h................h....h..f........r....f...r..........ft...h.....h.......r.....r.h.r........h..r................ff..f.......r....f..h.r.r.
4 f.....f.......r....t.r...h.h.rr......f................r.......h......r....rh.......................r...f...r.....t....r....................tf.........
5 .h............f...............r........t.....................ft.....f...h........f.....f......f.....h.....h........................f.t.f.....htt....f.
6 h..f.............h.......r.....f.r......t...tr...t....t..f......f....r............r..............r.......f......h......h......r.f.........r.....h....h
7 .....t...f.t.f..r...f..........f...h..h.....h..f.hr......t......h........f..f......h.......f....................h..h...........hh............f..t.....
8 ......t.......f...hfhf.f.r............h............t......r......h.........f.fr.................ffr..............r.....t......f...r.................ff

Turn = 25.
  012345678901234567890123456789012345678901234567890123456789012345678901234567890123456789012345678901234567890123456789012345678901234567890123456789
0 .r.r........r.............t.....r.r.r...r.......rr.........r.......trr.r.......................r.rrt.......r.r......r.rr.rr.r............t.......r.r..
1 t........f...............tt.......r......................r.....r...ttr.............rr...t..........t...f.....r..........r....r....t......tt........r..
2 tr.r......f..............tt............hh................r..........rr............r.r..............tt............r........................t...........
3 ttt..hrrr................t....rr.....f.............f.....r........ttttt...................r.....r........................r...................f........
4 .ttt..r........................r.r...f...r.......th..r...................................r......r........r................r.......r........tt.........
5 ......................r.rr....r.rr...............t..r............................f.....f...........r................r..............f.tt......ttt......
6 ...f.......t.....................................t....tt.t................r.............r............r...f...........................t.........ttt....
7 .....t...f.t.f..r.rrhh...rr..............................tt..............f..f........................r..........h............................f..t.....
8 ......t.......f..rrf.f.f.h....r...r..........r..r..t.....r..r..............r..........h...........r.............rr...rrrrr.......r...r......r...tt....

*** Darwin 3x180 ***
Turn = 0.
  012345678901234567890123456789012345678901234567890123456789012345678901234567890123456789012345678901234567890123456789012345678901234567890123456789012345678901234567890123456789
0 .......................t..............h...............................................................f.............f...............................................................
1 ........r................t..............................h.....................r...............f.........................t............f..............................h.........h.....
2 ........t...........h......h...t.............................................f..........................................r.............................................f.h..t........

Turn = 64.
  012345678901234567890123456789012345678901234567890123456789012345678901234567890123456789012345678901234567890123456789012345678901234567890123456789012345678901234567890123456789
0 .......................t...h...........................hh..............r............................................f...............................................h...............
1 .......................t.t....................................................................f.........................t............f..............................................
2 ........tt.....................t........................rr.........r..................................................................................................fh...t..h.....

*** Darwin 6x57 ***
Turn = 0.
  012345678901234567890123456789012345678901234567890123456
0 .............rt....t..h..h.......h....f..h....f.........h
1 r...................f.................rr.........h..t..t.
2 .h...........f........h..h...ff...r.r......f.r.....t.....
3 ..rr.....r.........................h.....................
4 ...h.r...h.t............r....r...........................
5 ..h...f.........................................f........

Turn = 145.
  012345678901234567890123456789012345678901234567890123456
0 .........r.......r....r...r.....r.r.rrr.r...r..rr....r...
1 .....r....................r........r.....................
2 ....r....r...r....................r..r...................
3 .....................................r...................
4 ................rrr...............r.r....................
5 .r.............rr............rrrrr..r..r..r..........r..r

*** Darwin 6x196 ***
Turn = 0.
  0123456789012345678901234567890123456789012345678901234567890123456789012345678901234567890123456789012345678901234567890123456789012345678901234567890123456789012345678901234567890123456789012345
0 ......hf.......f..t....f...........r....f.httr......h..r...f........t...............f......f.....h....................r..t....r...............t.....h.....h..........f..t....r...........r...f....h.
1 .....f......................h...r.......r.ft.ft...............r.............f....r.......r................hr.h...rt.t.......t.r........f...tf..............r......h......h..........................
2 t.....f..hh...tt..h....f.................h..h.....f..h.........r....r.......r..........rf................h.............t............thr..h.............t....h...h...f...f...............t..r...f....
3 .r......rr.f..f..........t.r..f....r.rt....f......f...r..............h....t.f...ttr...ht..f................f......r................f......................................h..f..h.....t........hf...
4 ........f...t..h.h...r..r......h..t.h.....t.r.....r......f.....r.............th.f..r.......r..........rt..r..................ft...ttr...h......r.hfh.r.............f.........t.........h.r..........
5 ..fh......h.h..h.........r..tf..h.f..rf...............t....t...........r..........h...rf..h......................f.f.....h...t...r.....f............................f....................r..........

Turn = 104.
  0123456789012345678901234567890123456789012345678901234567890123456789012345678901234567890123456789012345678901234567890123456789012345678901234567890123456789012345678901234567890123456789012345
0 r..........r...tttttt...........r.r..r..........r....r..r...rr.................r.....r.rtrtt...................r.......rr......r..rtrttt...t.......r...r...........r.......................r....rr..
1 ...............ttt....................r.............r............r............trtt......rr.................r..........r............ttt.....t...........tt....................t..........r...........
2 ...........r...ttttt.................r........................................tttt......tt...............................r..r...tr.rtt.................tt....................t......................
3 .............ttttt.t.r.r...........r..........................................tttttt....tt.........................................r.t..................t..r................tt..................f...
4 ..r.......r.ttttttt.t..r...........r..t...............r......................tttttt..........................................ttrr.r.t............r...r..............................................
5 rrr........rtttttttttt.r.........r..rrtt...............r......r................tttt................r.......r....r..r...r....rr..r..tttttt...rr...........r............r....................r...r....

*** Darwin 8x85 ***
Turn = 0.
  0123456789012345678901234567890123456789012345678901234567890123456789012345678901234
0 .....f..............h...............rtf.tf...t...............r.............r.....ff..
1 .......h.....t.r...........htfr..f.....ffr..r..............r.t.ttf..hh..h......h..ff.
2 t....f......tttf...f..f.ff..h.........fhf..h.......f...........r.....f......r..f..h..
3 r..tt..ht.htt.ffr..r...r....................t...r..rrt..t.r.......t....h.....f.......
4 r....f.f..........r.t.t......t..f.f.t.......r..rt...t..........ht....t.t.....fh......
5 ....h......r..........h..h.r...r......ft.t...t.f....tth.hfth..r.r.fh....t....f......t
6 ...h...f...t.h...r.r..h.t.rr..h.......f..........f....f.t.....rt...fh.r..f.h.h...h.r.
7 ...........h.r.....t.r....ffh...t....h....r..h...f..t.r....th.t......r...rh..t....h..

Turn = 30.
  0123456789012345678901234567890123456789012345678901234567890123456789012345678901234
0 t..........rrrr....r..r.....rrr......r......r..........rr..rr.ttt...r............rr..
1 t...........r...t.........r..................................ttttt.......hh.......rf.
2 t....t.r.....trtt..f..f.tttt..r...r................f...........rt..............f...r.
3 t..ttt.......rrtttt....tt.....r...rr.r..........r..........rr..rtt..........tt.......
4 ....tt.tt........t.....ttt.........r..t........r...ttt....t.....t............t...r...
5 h.......t.............tt..r..r.r...r..tt...rr......tttt.ttt..........t.....ttt.......
6 h..........t..........t.rr..........r.t..........f..t.t.t.tr..rt...f...t.t...ttt...r.
7 ...r......ttttr.r.....t......rr..r...rt......rr.........r.tr..rrt......tt.ttttt...r..

*** Darwin 2x131 ***
Turn = 0.
  01234567890123456789012345678901234567890123456789012345678901234567890123456789012345678901234567890123456789012345678901234567890
0 .....h......f............t.................t...............................t............r....................t.t.........ff........
1 t.............h.....r.................r...........................................h..............h.............h........h..ht......

Turn = 42.
  01234567890123456789012345678901234567890123456789012345678901234567890123456789012345678901234567890123456789012345678901234567890
0 ..r......rr...h..........t.................t....r.......................................................r............r.r.ff........
1 ..........r........r.............................r...............................................h.............tt..........tt......

*** Darwin 3x113 ***
Turn = 0.
  01234567890123456789012345678901234567890123456789012345678901234567890123456789012345678901234567890123456789012
0 h.............r.......f....f.....f......t...h....f.....h.h.f........h.h...f.....f.....tr.f.r.ffh.......t..t.....h
1 .hh.....t...r...r...tttfh.t....h.........t.t...........f..f.........h........hr.....hr....f.h.......hh.f....f.thh
2 .....r....h..f.f..hf.t.....th...f...h...fr.............h.r.......f..tht...tt.....f...hr.hr..r.......h....f.rth.f.

Turn = 189.
  01234567890123456789012345678901234567890123456789012345678901234567890123456789012345678901234567890123456789012
0 rrrrrr.r.rrrrr..........rrr..r...rr.....r.r.......r.........r...rr.r...r...r............r.r...r....r.r...r....r.r
1 rrrrr.rr.rr...............r.r.rrr......r.......r...............r.......r.........r...r...r.........r.............
2 rrr..rrr.rrrrr..........rrrr....r...r....rr........r......r.r.........r..r....r.r....rr...r.......r.............r

*** Darwin 2x23 ***
Turn = 0.
  01234567890123456789012
0 ...f.......h.hf.....t..
1 ...r.r.f..t...r...hf...

Turn = 119.
  01234567890123456789012
0 .......r..........r.rrr
1 ..r...rr......r.r.rr...

*** Darwin 9x174 ***
Turn = 0.
  012345678901234567890123456789012345678901234567890123456789012345678901234567890123456789012345678901234567890123456789012345678901234567890123456789012345678901234567890123
0 ...........t.........hf....r.......................h.............f..........rh........t.........r......tt......f...ft....h.......f.................f..hr..................r...
1 ...f...............f................f....................h.t...r........f...............r.....................r................................r.f........r..................t
2 .....r..........h..r....h..........t...t.............h..........f..r......r..rr.........t......tf....f......h...h.........r............h..........r...........r.........h..f..
3 ...t......hr.......t..r..t............................f..t....f.......r....t.ff.....................r.....f....f...............f..t...................h.....h.................
4 ..........f......r......r.............th...r...h.h...............f........t....t...f..f..........hf...h....r.........t..........t...............f...............r.............
5 ................h............r.t......................t...h..f.........hf.f.........fr..h..r........f....ft....f.h........h.......r......r.................t.....h....f.......
6 ..............................ff.......................h.....hf...h.........r.........f.........r..t.........f....f.f..t...............h...r.tr.............................f.
7 ..........................r...h............r.................f............h.t.........h.t...t...h..r.......hr.....h.................................h............t.....h.h....
8 ....f....h.........r..f.t...t...f.............th.............t..............r...r..................t........t.h....h.....h..........r.ht..h...r.t...h.......f.....ff.h........

Turn = 45.
  012345678901234567890123456789012345678901234567890123456789012345678901234567890123456789012345678901234567890123456789012345678901234567890123456789012345678901234567890123
0 rrr.t......r..r.r................r......r....r.....h..r.....rr...................r..r....r..........rrrrtt....r..tttttt.r.r.r.............r.............r...r............r..r.
1 ....t...............................fh.....................t.....r.......................r.........r..r.t.r.........t..................r..........r.........r........r........
2 ....t..............................t...t........................f................r..r......rr......rr.r...r.........t..........t........................h............r........
3 ...tr........................r.r......................f..t....f...........ttttt....r............r..rr......r...................tt....................r.......................r
4 r..rr..............t.....t............tt.......r.........t.......f........t..............rr...............r............t.h......tt.........................tt............r....
5 ...................t.....t....tt......................tt.....ttt..........tt..r.........................r.r...rr.......t.h.................................ttt............r..r
6 ..............................ttt.....................t.......t.r...........r.................r..............f....f.f..tt...................................t..r..r.r....r....
7 .......................r......tt...........r.................tt........................................r.....r.........t....................................t...r..r..........
8 ..........................r..........r.r..rr..............r....rr.r..r......r.................r.r............r.......................tttt.............r.....t.....rr.rr.......
